{
  "project_info": {
    "project_number": "100905238685",
    "firebase_url": "https://checkbaby-338a9.firebaseio.com",
    "project_id": "checkbaby-338a9",
    "storage_bucket": "checkbaby-338a9.appspot.com"
  },
  "client": [
    {
      "client_info": {
        "mobilesdk_app_id": "1:100905238685:android:258ba82ac6d3c212",
        "android_client_info": {
          "package_name": "com.example.bruno.projetofinalocean"
        }
      },
      "oauth_client": [
        {
          "client_id": "100905238685-s3bk77svsdus8gf6karhlnne23sed2le.apps.googleusercontent.com",
          "client_type": 3
        }
      ],
      "api_key": [
        {
          "current_key": "AIzaSyAS-AXF3OO_5VqqAK4aMwX_WgCpXJRztTI"
        }
      ],
      "services": {
        "analytics_service": {
          "status": 1
        },
        "appinvite_service": {
          "status": 1,
          "other_platform_oauth_client": []
        },
        "ads_service": {
          "status": 2
        }
      }
    }
  ],
  "configuration_version": "1"
}